\relax 
\providecommand\hyper@newdestlabel[2]{}
\@setckpt{face}{
\setcounter{page}{2}
\setcounter{equation}{0}
\setcounter{enumi}{0}
\setcounter{enumii}{0}
\setcounter{enumiii}{0}
\setcounter{enumiv}{0}
\setcounter{footnote}{0}
\setcounter{mpfootnote}{0}
\setcounter{part}{0}
\setcounter{section}{0}
\setcounter{subsection}{0}
\setcounter{subsubsection}{0}
\setcounter{paragraph}{0}
\setcounter{subparagraph}{0}
\setcounter{figure}{0}
\setcounter{table}{0}
\setcounter{LT@tables}{0}
\setcounter{LT@chunks}{0}
\setcounter{r@tfl@t}{0}
\setcounter{parentequation}{0}
\setcounter{Item}{0}
\setcounter{Hfootnote}{0}
\setcounter{Hy@AnnotLevel}{0}
\setcounter{bookmark@seq@number}{0}
\setcounter{AM@survey}{0}
\setcounter{cp@cntr}{0}
\setcounter{lstnumber}{1}
\setcounter{float@type}{8}
\setcounter{lofdepth}{1}
\setcounter{lotdepth}{1}
\setcounter{caption@flags}{0}
\setcounter{continuedfloat}{0}
\setcounter{section@level}{0}
\setcounter{lstlisting}{0}
}
